^T:\REPOSITORIES\CLASSES\CS280\ASSIGNMENTS\MEMORYMANAGER\SOURCE\DRIVER-SAMPLE.CPP
/c /ZI /nologo /W3 /WX- /diagnostics:classic /sdl /Od /D _CRT_SECURE_NO_WARNINGS /D _MBCS /Gm /EHsc /RTC1 /MDd /GS /fp:precise /permissive- /Zc:wchar_t /Zc:forScope /Zc:inline /Fo"X64\DEBUG\\" /Fd"X64\DEBUG\VC141.PDB" /Gd /TP T:\REPOSITORIES\CLASSES\CS280\ASSIGNMENTS\MEMORYMANAGER\SOURCE\DRIVER-SAMPLE.CPP
^T:\REPOSITORIES\CLASSES\CS280\ASSIGNMENTS\MEMORYMANAGER\SOURCE\OBJECTALLOCATOR.CPP
/c /ZI /nologo /W3 /WX- /diagnostics:classic /sdl /Od /D _CRT_SECURE_NO_WARNINGS /D _MBCS /Gm /EHsc /RTC1 /MDd /GS /fp:precise /permissive- /Zc:wchar_t /Zc:forScope /Zc:inline /Fo"X64\DEBUG\\" /Fd"X64\DEBUG\VC141.PDB" /Gd /TP T:\REPOSITORIES\CLASSES\CS280\ASSIGNMENTS\MEMORYMANAGER\SOURCE\OBJECTALLOCATOR.CPP
^T:\REPOSITORIES\CLASSES\CS280\ASSIGNMENTS\MEMORYMANAGER\SOURCE\PRNG.CPP
/c /ZI /nologo /W3 /WX- /diagnostics:classic /sdl /Od /D _CRT_SECURE_NO_WARNINGS /D _MBCS /Gm /EHsc /RTC1 /MDd /GS /fp:precise /permissive- /Zc:wchar_t /Zc:forScope /Zc:inline /Fo"X64\DEBUG\\" /Fd"X64\DEBUG\VC141.PDB" /Gd /TP T:\REPOSITORIES\CLASSES\CS280\ASSIGNMENTS\MEMORYMANAGER\SOURCE\PRNG.CPP
